[gd_scene load_steps=6 format=2]

[ext_resource path="res://assets/sprites/Cilialla_icon.png" type="Texture" id=1]
[ext_resource path="res://assets/sprites/Plasmoids_icon.png" type="Texture" id=2]
[ext_resource path="res://assets/sprites/Vacuella_icon.png" type="Texture" id=3]
[ext_resource path="res://assets/sprites/Centrioles_icon.png" type="Texture" id=4]
[ext_resource path="res://scenes/CooldownButton.tscn" type="PackedScene" id=10]

[node name="Buttons" type="Control"]
margin_left = -40.0
margin_top = -40.0
grow_horizontal = 2
grow_vertical = 2
__meta__ = {
"_edit_use_anchors_": false
}

[node name="ButtonCentrioles" parent="." instance=ExtResource( 10 )]
texture_normal = ExtResource( 4 )
cooldown = 1.0

[node name="ButtonCilialla" parent="." instance=ExtResource( 10 )]
texture_normal = ExtResource( 1 )
virus_type_cursor = "Cilialla"
cooldown = 2.0

[node name="ButtonVacuella" parent="." instance=ExtResource( 10 )]
texture_normal = ExtResource( 3 )
virus_type_cursor = "Vacuella"
cooldown = 2.0

[node name="ButtonPlasmoids" parent="." instance=ExtResource( 10 )]
texture_normal = ExtResource( 2 )
virus_type_cursor = "Plasmoids"
cooldown = 0.5
